{
	"heading": "Blogs",
	"text":"",
	"links":[
		{
			"address":"http://tboddyspargo.wordpress.com",
			"name": "Pond Hopping",
			"icon":"assets/round-icons/pond-hopping-sm.png"
		},
		{
			"address":"http://tylerbod.wordpress.com",
			"name": "The Life of Ty",
			"icon":"assets/round-icons/life-of-ty-sm.png"
		}
	]
}